24 -8 40 -16 872
992
-16 72 -24 -40 808
-32 952
-152 832
992
16 -24 936
56 -24 152 -24 704
-24 32 -24 -16 64 -16 -56 -24 -56 -16 -32 -32 -48 -48 -48 -64 -64 192
288 -16 -32 40 -8 -24 -40 -48 -56 368
-160 232 -8 144 -8 400
